../Core/Src/main.c:71:5:_write	24	static
../Core/Src/main.c:79:6:ADC_Convert	16	static
../Core/Src/main.c:99:5:main	40	dynamic
../Core/Src/main.c:173:6:SystemClock_Config	88	static
../Core/Src/main.c:226:13:MX_ADC1_Init	24	static
../Core/Src/main.c:278:13:MX_DAC_Init	16	static
../Core/Src/main.c:318:13:MX_TIM1_Init	96	static
../Core/Src/main.c:392:13:MX_USART1_UART_Init	8	static
../Core/Src/main.c:423:13:MX_DMA_Init	16	static
../Core/Src/main.c:441:13:MX_GPIO_Init	24	static
../Core/Src/main.c:464:6:Error_Handler	4	static,ignoring_inline_asm
